Lab 06/part 03/cpu_wavedata.vcd
$date
	Wed Dec 02 10:47:22 2020
$end
$version
	Icarus Verilog
$end
$timescale
	100ps
$end
$scope module cpu_tb $end
$var wire 32 ! PC [31:0] $end
$var reg 1 " CLK $end
$var reg 1 # RESET $end
$scope module mycpu $end
$var wire 1 " CLK $end
$var wire 1 # RESET $end
$var wire 1 $ write_enb $end
$var wire 1 % write $end
$var wire 1 & w_enable $end
$var wire 1 ' sel_r $end
$var wire 128 ( readinst [127:0] $end
$var wire 8 ) readdata [7:0] $end
$var wire 1 * read_insC $end
$var wire 1 + read $end
$var wire 32 , pc_4 [31:0] $end
$var wire 32 - out_32bit [31:0] $end
$var wire 8 . out2 [7:0] $end
$var wire 8 / out1 [7:0] $end
$var wire 3 0 op_code [2:0] $end
$var wire 8 1 mux2_out [7:0] $end
$var wire 8 2 mux1_out [7:0] $end
$var wire 32 3 mem_writedata [31:0] $end
$var wire 1 4 mem_write $end
$var wire 32 5 mem_readdata [31:0] $end
$var wire 1 6 mem_read $end
$var wire 1 7 mem_busywait_i $end
$var wire 6 8 mem_address [5:0] $end
$var wire 1 9 m_busywait $end
$var wire 32 : forw_32 [31:0] $end
$var wire 1 ; busywait_2 $end
$var wire 1 < busywait_1 $end
$var wire 1 = busywait $end
$var wire 6 > address_i [5:0] $end
$var wire 1 ? ZERO $end
$var wire 1 @ SEL4 $end
$var wire 1 A SEL3 $end
$var wire 1 B SEL2 $end
$var wire 1 C SEL1 $end
$var wire 1 D NXT_SEL $end
$var wire 32 E NXT_PC_ADD_1 [31:0] $end
$var wire 32 F NXT_PC_ADD [31:0] $end
$var wire 8 G MUX3_OUT [7:0] $end
$var wire 32 H INSTRUCTION [31:0] $end
$var wire 8 I Complement_2s [7:0] $end
$var wire 8 J Alu_out [7:0] $end
$var reg 32 K PC [31:0] $end
$scope module ALU1 $end
$var wire 1 ? ZERO $end
$var wire 8 L output_or [7:0] $end
$var wire 8 M output_forward [7:0] $end
$var wire 8 N output_and [7:0] $end
$var wire 8 O output_add [7:0] $end
$var wire 3 P SELECT [2:0] $end
$var wire 8 Q RESULT [7:0] $end
$var wire 8 R DATA2 [7:0] $end
$var wire 8 S DATA1 [7:0] $end
$scope module add1 $end
$var wire 8 T DATA2 [7:0] $end
$var wire 8 U DATA1 [7:0] $end
$var reg 8 V RESULT [7:0] $end
$upscope $end
$scope module and1 $end
$var wire 8 W DATA2 [7:0] $end
$var wire 8 X DATA1 [7:0] $end
$var reg 8 Y RESULT [7:0] $end
$upscope $end
$scope module forward1 $end
$var wire 8 Z DATA2 [7:0] $end
$var reg 8 [ RESULT [7:0] $end
$upscope $end
$scope module mux1 $end
$var wire 8 \ output_add [7:0] $end
$var wire 8 ] output_and [7:0] $end
$var wire 8 ^ output_forward [7:0] $end
$var wire 8 _ output_or [7:0] $end
$var wire 3 ` SELECT [2:0] $end
$var reg 8 a RESULT [7:0] $end
$upscope $end
$scope module or1 $end
$var wire 8 b DATA2 [7:0] $end
$var wire 8 c DATA1 [7:0] $end
$var reg 8 d RESULT [7:0] $end
$upscope $end
$upscope $end
$scope module BEQ_SIGNEL $end
$var wire 1 D BEQ_SEL_SIG $end
$var wire 1 ? ZERO $end
$var wire 1 e beq_0 $end
$var wire 1 @ SEL4 $end
$var wire 1 A SEL3 $end
$upscope $end
$scope module FORW_ADD $end
$var wire 32 f DATA2 [31:0] $end
$var wire 32 g DATA1 [31:0] $end
$var reg 32 h RESULT [31:0] $end
$upscope $end
$scope module IMM_0R_2S $end
$var wire 1 C SEL $end
$var wire 8 i DATA2 [7:0] $end
$var wire 8 j DATA1 [7:0] $end
$var reg 8 k MUX_OUT [7:0] $end
$upscope $end
$scope module IMM_OR_REG $end
$var wire 8 l DATA1 [7:0] $end
$var wire 8 m DATA2 [7:0] $end
$var wire 1 B SEL $end
$var reg 8 n MUX_OUT [7:0] $end
$upscope $end
$scope module MEM_OR_ALU $end
$var wire 8 o DATA2 [7:0] $end
$var wire 1 ' SEL $end
$var wire 8 p DATA1 [7:0] $end
$var reg 8 q MUX_OUT [7:0] $end
$upscope $end
$scope module NEXTPC $end
$var wire 32 r FORW_ADD [31:0] $end
$var wire 1 D NXT_Add_SEL $end
$var wire 32 s PC_4 [31:0] $end
$var reg 32 t NXT_PC_ADD [31:0] $end
$upscope $end
$scope module PC_OR_NEXTPC $end
$var wire 32 u DATA1 [31:0] $end
$var wire 32 v DATA2 [31:0] $end
$var wire 1 = SEL $end
$var reg 32 w MUX_OUT [31:0] $end
$upscope $end
$scope module Reg1 $end
$var wire 1 " CLK $end
$var wire 8 x IN [7:0] $end
$var wire 3 y INADDRESS [2:0] $end
$var wire 8 z OUT1 [7:0] $end
$var wire 3 { OUT1ADDRESS [2:0] $end
$var wire 8 | OUT2 [7:0] $end
$var wire 3 } OUT2ADDRESS [2:0] $end
$var wire 1 # RESET $end
$var wire 1 & WRITE $end
$var integer 32 ~ i [31:0] $end
$upscope $end
$scope module SIGN_EXT $end
$var wire 8 !" IN [7:0] $end
$var wire 32 "" OUT [31:0] $end
$upscope $end
$scope module WRITECONT $end
$var wire 1 = busywait $end
$var wire 1 $ WRITE_SIG_IN $end
$var reg 1 & WRITE_SIG_OUT $end
$upscope $end
$scope module busywait_m $end
$var wire 1 ; busy2 $end
$var wire 1 < busy1 $end
$var reg 1 = busy $end
$upscope $end
$scope module cache $end
$var wire 8 #" ADDRESS [7:0] $end
$var wire 1 " CLK $end
$var wire 1 # RESET $end
$var wire 8 $" WRITEDATA [7:0] $end
$var wire 1 % WRITE $end
$var wire 1 + READ $end
$var wire 32 %" MREADDATA [31:0] $end
$var wire 1 9 MBUSYWAIT $end
$var reg 1 < BUSYWAIT $end
$var reg 1 &" Cdirty $end
$var reg 3 '" Ctag [2:0] $end
$var reg 1 (" Cvalid $end
$var reg 6 )" MADDRESS [5:0] $end
$var reg 1 6 MREAD $end
$var reg 1 4 MWRITE $end
$var reg 32 *" MWRITEDATA [31:0] $end
$var reg 8 +" READDATA [7:0] $end
$var reg 1 ," hit $end
$var reg 3 -" index [2:0] $end
$var reg 1 ." miss_found $end
$var reg 3 /" next_state [2:0] $end
$var reg 2 0" offset [1:0] $end
$var reg 1 1" readaccess $end
$var reg 3 2" state [2:0] $end
$var reg 3 3" tag [2:0] $end
$var reg 1 4" writeaccess $end
$var integer 32 5" i [31:0] $end
$upscope $end
$scope module compliment1 $end
$var wire 8 6" in [7:0] $end
$var reg 8 7" out [7:0] $end
$upscope $end
$scope module controlunit1 $end
$var wire 1 " CLK $end
$var wire 1 8" NXT_PC_ADD_1 $end
$var wire 1 = busywait $end
$var wire 32 9" op_data [31:0] $end
$var reg 1 C SEL1 $end
$var reg 1 B SEL2 $end
$var reg 1 A SEL3 $end
$var reg 1 @ SEL4 $end
$var reg 3 :" op_code [2:0] $end
$var reg 1 + read $end
$var reg 1 ' sel_r $end
$var reg 1 % write $end
$var reg 1 $ write_enb $end
$upscope $end
$scope module counter1 $end
$var wire 32 ;" PC [31:0] $end
$var wire 1 # RESET $end
$var reg 32 <" PC_NEW [31:0] $end
$upscope $end
$scope module data_mem $end
$var wire 6 =" address [5:0] $end
$var wire 1 " clock $end
$var wire 1 6 read $end
$var wire 1 # reset $end
$var wire 1 4 write $end
$var wire 32 >" writedata [31:0] $end
$var reg 1 9 busywait $end
$var reg 1 ?" readaccess $end
$var reg 32 @" readdata [31:0] $end
$var reg 1 A" writeaccess $end
$var integer 32 B" i [31:0] $end
$upscope $end
$scope module inst_cache $end
$var wire 1 " clock $end
$var wire 32 C" pc [31:0] $end
$var wire 1 # reset $end
$var wire 128 D" readinst [127:0] $end
$var wire 1 7 mem_busywait $end
$var reg 6 E" address [5:0] $end
$var reg 1 ; busywait $end
$var reg 3 F" ctag [2:0] $end
$var reg 1 G" hit $end
$var reg 3 H" index [2:0] $end
$var reg 32 I" instruction [31:0] $end
$var reg 2 J" offset [1:0] $end
$var reg 1 * read $end
$var reg 3 K" tag [2:0] $end
$var reg 1 L" valid $end
$var reg 1 M" write $end
$var integer 32 N" i [31:0] $end
$upscope $end
$scope module inst_mem $end
$var wire 6 O" address [5:0] $end
$var wire 1 " clock $end
$var wire 1 * read $end
$var reg 1 7 busywait $end
$var reg 1 P" readaccess $end
$var reg 128 Q" readinst [127:0] $end
$upscope $end
$upscope $end
$upscope $end
$enddefinitions $end
#0
$dumpvars
bx Q"
0P"
bx O"
bx N"
xM"
xL"
bx K"
bx J"
bx I"
bx H"
xG"
bx F"
bx E"
bx D"
bx C"
b100000000 B"
0A"
bx @"
0?"
bx >"
bx ="
bx <"
bx ;"
bx :"
bx 9"
z8"
bx 7"
bx 6"
bx 5"
x4"
bx 3"
b0 2"
x1"
bx 0"
b0 /"
0."
bx -"
x,"
bx +"
bx *"
bx )"
x("
bx '"
x&"
bx %"
bx $"
bx #"
bx00 ""
bx !"
bx ~
bx }
bx |
bx {
bx z
bx y
bx x
bx w
bx v
bx u
bx t
bx s
bx r
bx q
bx p
bx o
bx n
bx m
bx l
bx k
bx j
bx i
bx h
bx00 g
bx f
xe
bx d
bx c
bx b
bx a
bx `
bx _
bx ^
bx ]
bx \
bx [
bx Z
bx Y
bx X
bx W
bx V
bx U
bx T
bx S
bx R
bx Q
bx P
bx O
bx N
bx M
bx L
bx K
bx J
bx I
bx H
bx G
bx F
bx E
xD
xC
xB
xA
x@
x?
bx >
x=
x<
x;
bx :
09
bx 8
07
06
bx 5
04
bx 3
bx 2
bx 1
bx 0
bx /
bx .
bx00 -
bx ,
x+
x*
bx )
bx (
x'
x&
x%
x$
1#
0"
bx !
$end
#10
b0 E
b0 w
b0 F
b0 t
b0 v
b0 ,
b0 f
b0 s
b0 <"
0=
0<
b1000 5"
#19
0,"
#40
04"
01"
0%
0+
1"
#41
b1000 ~
#50
b0 !
b0 K
b0 u
b0 ;"
b0 C"
0;
b1000 N"
b1000 5"
0#
#60
b100 E
b100 w
b100 F
b100 t
b100 v
b100 ,
b100 f
b100 s
b100 <"
b0 J"
b0 H"
b0 K"
#69
0G"
#70
0L"
b0 F"
#80
0"
#120
b0 E
b0 w
0&
1P"
17
1=
b0 >
b0 E"
b0 O"
1M"
1*
1;
1"
#160
0"
#200
1"
#240
0"
#280
1"
#320
0"
#360
1"
#400
0"
#440
1"
#480
0"
#520
1"
#560
0"
#600
1"
bx00001001 (
bx00001001 D"
bx00001001 Q"
#640
0"
#680
1"
#720
0"
#760
1"
#800
0"
#840
1"
#880
0"
#920
1"
#960
0"
#1000
1"
bx0000000000001001 (
bx0000000000001001 D"
bx0000000000001001 Q"
#1040
0"
#1080
1"
#1120
0"
#1160
1"
#1200
0"
#1240
1"
#1280
0"
#1320
1"
#1360
0"
#1400
1"
bx000000000000000000001001 (
bx000000000000000000001001 D"
bx000000000000000000001001 Q"
#1440
0"
#1480
1"
#1520
0"
#1560
1"
#1600
0"
#1640
1"
#1680
0"
#1720
1"
#1760
0"
#1800
1"
bx00000000000000000000000000001001 (
bx00000000000000000000000000001001 D"
bx00000000000000000000000000001001 Q"
#1840
0"
#1880
1"
#1920
0"
#1960
1"
#2000
0"
#2040
1"
#2080
0"
#2120
1"
#2160
0"
#2200
1"
bx0000000100000000000000000000000000001001 (
bx0000000100000000000000000000000000001001 D"
bx0000000100000000000000000000000000001001 Q"
#2240
0"
#2280
1"
#2320
0"
#2360
1"
#2400
0"
#2440
1"
#2480
0"
#2520
1"
#2560
0"
#2600
1"
bx000000000000000100000000000000000000000000001001 (
bx000000000000000100000000000000000000000000001001 D"
bx000000000000000100000000000000000000000000001001 Q"
#2640
0"
#2680
1"
#2720
0"
#2760
1"
#2800
0"
#2840
1"
#2880
0"
#2920
1"
#2960
0"
#3000
1"
bx00000001000000000000000100000000000000000000000000001001 (
bx00000001000000000000000100000000000000000000000000001001 D"
bx00000001000000000000000100000000000000000000000000001001 Q"
#3040
0"
#3080
1"
#3120
0"
#3160
1"
#3200
0"
#3240
1"
#3280
0"
#3320
1"
#3360
0"
#3400
1"
bx0000000000000001000000000000000100000000000000000000000000001001 (
bx0000000000000001000000000000000100000000000000000000000000001001 D"
bx0000000000000001000000000000000100000000000000000000000000001001 Q"
#3440
0"
#3480
1"
#3520
0"
#3560
1"
#3600
0"
#3640
1"
#3680
0"
#3720
1"
#3760
0"
#3800
1"
bx000000010000000000000001000000000000000100000000000000000000000000001001 (
bx000000010000000000000001000000000000000100000000000000000000000000001001 D"
bx000000010000000000000001000000000000000100000000000000000000000000001001 Q"
#3840
0"
#3880
1"
#3920
0"
#3960
1"
#4000
0"
#4040
1"
#4080
0"
#4120
1"
#4160
0"
#4200
1"
bx00000000000000010000000000000001000000000000000100000000000000000000000000001001 (
bx00000000000000010000000000000001000000000000000100000000000000000000000000001001 D"
bx00000000000000010000000000000001000000000000000100000000000000000000000000001001 Q"
#4240
0"
#4280
1"
#4320
0"
#4360
1"
#4400
0"
#4440
1"
#4480
0"
#4520
1"
#4560
0"
#4600
1"
bx0000000000000000000000010000000000000001000000000000000100000000000000000000000000001001 (
bx0000000000000000000000010000000000000001000000000000000100000000000000000000000000001001 D"
bx0000000000000000000000010000000000000001000000000000000100000000000000000000000000001001 Q"
#4640
0"
#4680
1"
#4720
0"
#4760
1"
#4800
0"
#4840
1"
#4880
0"
#4920
1"
#4960
0"
#5000
1"
bx000010100000000000000000000000010000000000000001000000000000000100000000000000000000000000001001 (
bx000010100000000000000000000000010000000000000001000000000000000100000000000000000000000000001001 D"
bx000010100000000000000000000000010000000000000001000000000000000100000000000000000000000000001001 Q"
#5040
0"
#5080
1"
#5120
0"
#5160
1"
#5200
0"
#5240
1"
#5280
0"
#5320
1"
#5360
0"
#5400
1"
bx00000000000010100000000000000000000000010000000000000001000000000000000100000000000000000000000000001001 (
bx00000000000010100000000000000000000000010000000000000001000000000000000100000000000000000000000000001001 D"
bx00000000000010100000000000000000000000010000000000000001000000000000000100000000000000000000000000001001 Q"
#5440
0"
#5480
1"
#5520
0"
#5560
1"
#5600
0"
#5640
1"
#5680
0"
#5720
1"
#5760
0"
#5800
1"
bx0000000100000000000010100000000000000000000000010000000000000001000000000000000100000000000000000000000000001001 (
bx0000000100000000000010100000000000000000000000010000000000000001000000000000000100000000000000000000000000001001 D"
bx0000000100000000000010100000000000000000000000010000000000000001000000000000000100000000000000000000000000001001 Q"
#5840
0"
#5880
1"
#5920
0"
#5960
1"
#6000
0"
#6040
1"
#6080
0"
#6120
1"
#6160
0"
#6200
1"
bx000000000000000100000000000010100000000000000000000000010000000000000001000000000000000100000000000000000000000000001001 (
bx000000000000000100000000000010100000000000000000000000010000000000000001000000000000000100000000000000000000000000001001 D"
bx000000000000000100000000000010100000000000000000000000010000000000000001000000000000000100000000000000000000000000001001 Q"
#6240
0"
#6280
1"
#6320
0"
#6360
1"
#6400
0"
#6440
1"
#6480
0"
#6520
1"
#6560
0"
#6600
1"
0P"
07
b1011000000000000000100000000000010100000000000000000000000010000000000000001000000000000000100000000000000000000000000001001 (
b1011000000000000000100000000000010100000000000000000000000010000000000000001000000000000000100000000000000000000000000001001 D"
b1011000000000000000100000000000010100000000000000000000000010000000000000001000000000000000100000000000000000000000000001001 Q"
#6610
0M"
#6620
1L"
#6629
1G"
#6639
b0 -
b0 g
b0 ""
b0 !"
b1001 l
b0 y
b1 }
b0 {
b1001 H
b1001 9"
b1001 I"
#6640
0"
#6649
0D
0e
b1001 1
b1001 R
b1001 T
b1001 W
b1001 Z
b1001 b
b1001 n
0'
1$
0@
0A
1B
0C
b0 0
b0 P
b0 `
b0 :"
#6659
0?
b1001 G
b1001 q
b1001 x
b0 2
b0 k
b0 m
b1001 L
b1001 _
b1001 d
b0 N
b0 Y
b0 ]
b1001 J
b1001 Q
b1001 a
b1001 o
b1001 #"
b1001 M
b1001 [
b1001 ^
b100 :
b100 h
b100 r
b0 .
b0 i
b0 |
b0 6"
b0 /
b0 S
b0 U
b0 X
b0 c
b0 z
b0 $"
#6669
b0 I
b0 j
b0 7"
b1001 O
b1001 V
b1001 \
#6680
b100 E
b100 w
1&
0=
0*
0;
1"
#6690
b100 !
b100 K
b100 u
b100 ;"
b100 C"
#6700
b1000 E
b1000 w
b1000 F
b1000 t
b1000 v
b1000 ,
b1000 f
b1000 s
b1000 <"
b1 J"
#6710
b1 1
b1 R
b1 T
b1 W
b1 Z
b1 b
b1 n
b100 -
b100 g
b100 ""
b1 !"
b1 l
b1 y
b10000000000000001 H
b10000000000000001 9"
b10000000000000001 I"
b1001 /
b1001 S
b1001 U
b1001 X
b1001 c
b1001 z
b1001 $"
#6720
b1 G
b1 q
b1 x
b1 J
b1 Q
b1 a
b1 o
b1 #"
b1 M
b1 [
b1 ^
b1 N
b1 Y
b1 ]
b1100 :
b1100 h
b1100 r
0"
#6730
b1010 O
b1010 V
b1010 \
#6760
1"
#6770
b1000 !
b1000 K
b1000 u
b1000 ;"
b1000 C"
#6780
b1100 E
b1100 w
b1100 F
b1100 t
b1100 v
b1100 ,
b1100 f
b1100 s
b1100 <"
b10 J"
#6790
b0 -
b0 g
b0 ""
b0 !"
b0 y
b1 2
b1 k
b1 m
b1010000000000000000000000001 H
b1010000000000000000000000001 9"
b1010000000000000000000000001 I"
b1 .
b1 i
b1 |
b1 6"
#6800
b1000 E
b1000 w
b0 3"
b0 -"
b1 0"
1=
bx G
bx q
bx x
14"
1<
0&
1'
1%
0$
0B
b11111111 I
b11111111 j
b11111111 7"
0"
#6810
b1 /"
0&"
0("
b0 '"
#6840
1?"
19
1."
b0 8
b0 )"
b0 ="
16
b1 /"
b1 2"
1"
#6880
0"
#6920
1"
#6960
0"
#7000
1"
#7040
0"
#7080
1"
#7120
0"
#7160
1"
#7200
0"
#7240
1"
#7280
0"
#7320
1"
bx00000000 5
bx00000000 %"
bx00000000 @"
#7360
0"
#7400
1"
#7440
0"
#7480
1"
#7520
0"
#7560
1"
#7600
0"
#7640
1"
#7680
0"
#7720
1"
bx0000000000000000 5
bx0000000000000000 %"
bx0000000000000000 @"
#7760
0"
#7800
1"
#7840
0"
#7880
1"
#7920
0"
#7960
1"
#8000
0"
#8040
1"
#8080
0"
#8120
1"
bx000000000000000000000000 5
bx000000000000000000000000 %"
bx000000000000000000000000 @"
#8160
0"
#8200
1"
#8240
0"
#8280
1"
#8320
0"
#8360
1"
#8400
0"
#8440
1"
#8480
0"
#8520
bx 8
bx )"
bx ="
06
0."
b0 2"
b1 /"
1"
0?"
09
b0 5
b0 %"
b0 @"
#8539
b0 /"
1,"
#8540
1("
#8560
0"
#8600
b1100 E
b1100 w
0=
0<
1"
#8610
b1100 !
b1100 K
b1100 u
b1100 ;"
b1100 C"
04"
#8620
b10000 E
b10000 w
b10000 F
b10000 t
b10000 v
b10000 ,
b10000 f
b10000 s
b10000 <"
b11 J"
#8630
b0 l
b0 }
b1 {
b1011000000000000000100000000 H
b1011000000000000000100000000 9"
b1011000000000000000100000000 I"
#8640
b0 1
b0 R
b0 T
b0 W
b0 Z
b0 b
b0 n
1B
b10000 :
b10000 h
b10000 r
0"
#8650
1?
b1001 2
b1001 k
b1001 m
b1 L
b1 _
b1 d
b0 N
b0 Y
b0 ]
b0 J
b0 Q
b0 a
b0 o
b0 #"
b0 M
b0 [
b0 ^
b1001 .
b1001 i
b1001 |
b1001 6"
b1 /
b1 S
b1 U
b1 X
b1 c
b1 z
b1 $"
#8660
b11110111 I
b11110111 j
b11110111 7"
b1 O
b1 V
b1 \
#8680
0%
1"
#8690
b10000 !
b10000 K
b10000 u
b10000 ;"
b10000 C"
#8700
b10100 E
b10100 w
b10100 F
b10100 t
b10100 v
b10100 ,
b10100 f
b10100 s
b10100 <"
b0 J"
b1 H"
#8710
b0 {
b0 H
b0 9"
b0 I"
0L"
#8719
0G"
#8720
b0 G
b0 q
b0 x
1&
0'
1$
b10100 :
b10100 h
b10100 r
0"
#8730
b1001 /
b1001 S
b1001 U
b1001 X
b1001 c
b1001 z
b1001 $"
#8740
b1001 L
b1001 _
b1001 d
#8750
b1001 O
b1001 V
b1001 \
#8760
b10000 E
b10000 w
0&
1P"
17
1=
b1 >
b1 E"
b1 O"
1M"
1*
1;
1"
#8800
0"
#8840
1"
#8880
0"
#8920
1"
#8960
0"
#9000
1"
#9040
0"
#9080
1"
#9120
0"
#9160
1"
#9200
0"
#9240
1"
b1011000000000000000100000000000010100000000000000000000000010000000000000001000000000000000100000000000000000000000000000001 (
b1011000000000000000100000000000010100000000000000000000000010000000000000001000000000000000100000000000000000000000000000001 D"
b1011000000000000000100000000000010100000000000000000000000010000000000000001000000000000000100000000000000000000000000000001 Q"
#9280
0"
#9320
1"
#9360
0"
#9400
1"
#9440
0"
#9480
1"
#9520
0"
#9560
1"
#9600
0"
#9640
1"
#9680
0"
#9720
1"
#9760
0"
#9800
1"
#9840
0"
#9880
1"
#9920
0"
#9960
1"
#10000
0"
#10040
1"
b1011000000000000000100000000000010100000000000000000000000010000000000000001000000000000000100000000000000100000000000000001 (
b1011000000000000000100000000000010100000000000000000000000010000000000000001000000000000000100000000000000100000000000000001 D"
b1011000000000000000100000000000010100000000000000000000000010000000000000001000000000000000100000000000000100000000000000001 Q"
#10080
0"
#10120
1"
#10160
0"
#10200
1"
#10240
0"
#10280
1"
#10320
0"
#10360
1"
#10400
0"
#10440
1"
b1011000000000000000100000000000010100000000000000000000000010000000000000001000000000000000100001000000000100000000000000001 (
b1011000000000000000100000000000010100000000000000000000000010000000000000001000000000000000100001000000000100000000000000001 D"
b1011000000000000000100000000000010100000000000000000000000010000000000000001000000000000000100001000000000100000000000000001 Q"
#10480
0"
#10520
1"
#10560
0"
#10600
1"
#10640
0"
#10680
1"
#10720
0"
#10760
1"
#10800
0"
#10840
1"
#10880
0"
#10920
1"
#10960
0"
#11000
1"
#11040
0"
#11080
1"
#11120
0"
#11160
1"
#11200
0"
#11240
1"
#11280
0"
#11320
1"
#11360
0"
#11400
1"
#11440
0"
#11480
1"
#11520
0"
#11560
1"
#11600
0"
#11640
1"
b1011000000000000000100000000000010100000000000000000000000010000000000000011000000000000000100001000000000100000000000000001 (
b1011000000000000000100000000000010100000000000000000000000010000000000000011000000000000000100001000000000100000000000000001 D"
b1011000000000000000100000000000010100000000000000000000000010000000000000011000000000000000100001000000000100000000000000001 Q"
#11680
0"
#11720
1"
#11760
0"
#11800
1"
#11840
0"
#11880
1"
#11920
0"
#11960
1"
#12000
0"
#12040
1"
b1011000000000000000100000000000010100000000000000000000000010000100000000011000000000000000100001000000000100000000000000001 (
b1011000000000000000100000000000010100000000000000000000000010000100000000011000000000000000100001000000000100000000000000001 D"
b1011000000000000000100000000000010100000000000000000000000010000100000000011000000000000000100001000000000100000000000000001 Q"
#12080
0"
#12120
1"
#12160
0"
#12200
1"
#12240
0"
#12280
1"
#12320
0"
#12360
1"
#12400
0"
#12440
1"
#12480
0"
#12520
1"
#12560
0"
#12600
1"
#12640
0"
#12680
1"
#12720
0"
#12760
1"
#12800
0"
#12840
1"
#12880
0"
#12920
1"
#12960
0"
#13000
1"
#13040
0"
#13080
1"
#13120
0"
#13160
1"
#13200
0"
#13240
1"
b1011000000000000000100000000000010100000010000000000000000010000100000000011000000000000000100001000000000100000000000000001 (
b1011000000000000000100000000000010100000010000000000000000010000100000000011000000000000000100001000000000100000000000000001 D"
b1011000000000000000100000000000010100000010000000000000000010000100000000011000000000000000100001000000000100000000000000001 Q"
#13280
0"
#13320
1"
#13360
0"
#13400
1"
#13440
0"
#13480
1"
#13520
0"
#13560
1"
#13600
0"
#13640
1"
b1011000000000000000100000000000000110000010000000000000000010000100000000011000000000000000100001000000000100000000000000001 (
b1011000000000000000100000000000000110000010000000000000000010000100000000011000000000000000100001000000000100000000000000001 D"
b1011000000000000000100000000000000110000010000000000000000010000100000000011000000000000000100001000000000100000000000000001 Q"
#13680
0"
#13720
1"
#13760
0"
#13800
1"
#13840
0"
#13880
1"
#13920
0"
#13960
1"
#14000
0"
#14040
1"
b1011000000000000000100000010000000110000010000000000000000010000100000000011000000000000000100001000000000100000000000000001 (
b1011000000000000000100000010000000110000010000000000000000010000100000000011000000000000000100001000000000100000000000000001 D"
b1011000000000000000100000010000000110000010000000000000000010000100000000011000000000000000100001000000000100000000000000001 Q"
#14080
0"
#14120
1"
#14160
0"
#14200
1"
#14240
0"
#14280
1"
#14320
0"
#14360
1"
#14400
0"
#14440
1"
b1011000000000000010000000010000000110000010000000000000000010000100000000011000000000000000100001000000000100000000000000001 (
b1011000000000000010000000010000000110000010000000000000000010000100000000011000000000000000100001000000000100000000000000001 D"
b1011000000000000010000000010000000110000010000000000000000010000100000000011000000000000000100001000000000100000000000000001 Q"
#14480
0"
#14520
1"
#14560
0"
#14600
1"
#14640
0"
#14680
1"
#14720
0"
#14760
1"
#14800
0"
#14840
1"
#14880
0"
#14920
1"
#14960
0"
#15000
1"
#15040
0"
#15080
1"
#15120
0"
#15160
1"
#15200
0"
#15240
1"
0P"
07
#15250
0M"
#15260
1L"
#15269
1G"
#15279
b1 1
b1 R
b1 T
b1 W
b1 Z
b1 b
b1 n
b1000 -
b1000 g
b1000 ""
b10 !"
b1 l
b10 y
b1 }
b1000000000100000000000000001 H
b1000000000100000000000000001 9"
b1000000000100000000000000001 I"
#15280
0"
#15289
11"
1<
b1001 1
b1001 R
b1001 T
b1001 W
b1001 Z
b1001 b
b1001 n
1'
1+
0B
0?
bx G
bx q
bx x
b1 N
b1 Y
b1 ]
b1 J
b1 Q
b1 a
b1 o
b1 #"
b1 M
b1 [
b1 ^
#15299
b1 1
b1 R
b1 T
b1 W
b1 Z
b1 b
b1 n
b1001 G
b1001 q
b1001 x
b1 2
b1 k
b1 m
b1001 )
b1001 p
b1001 +"
1&"
b1001 N
b1001 Y
b1001 ]
b1001 J
b1001 Q
b1001 a
b1001 o
b1001 #"
b1001 M
b1001 [
b1001 ^
b10010 O
b10010 V
b10010 \
b11100 :
b11100 h
b11100 r
b1 .
b1 i
b1 |
b1 6"
#15309
b1 N
b1 Y
b1 ]
b1 J
b1 Q
b1 a
b1 o
b1 #"
b1 M
b1 [
b1 ^
b11111111 I
b11111111 j
b11111111 7"
#15319
b1010 O
b1010 V
b1010 \
#15320
b10100 E
b10100 w
1&
0=
0<
01"
0*
0;
1"
#15330
b10100 !
b10100 K
b10100 u
b10100 ;"
b10100 C"
#15340
b11000 E
b11000 w
b11000 F
b11000 t
b11000 v
b11000 ,
b11000 f
b11000 s
b11000 <"
b1 J"
#15350
b1100 -
b1100 g
b1100 ""
b11 !"
b11 y
b1000000000110000000000000001 H
b1000000000110000000000000001 9"
b1000000000110000000000000001 I"
#15360
b100100 :
b100100 h
b100100 r
0"
#15400
0+
1"
#15410
b11000 !
b11000 K
b11000 u
b11000 ;"
b11000 C"
#15420
b11100 E
b11100 w
b11100 F
b11100 t
b11100 v
b11100 ,
b11100 f
b11100 s
b11100 <"
b10 J"
#15430
b10000 -
b10000 g
b10000 ""
b100 !"
b100 y
b11000001000000000000000001 H
b11000001000000000000000001 9"
b11000001000000000000000001 I"
#15440
b11111111 1
b11111111 R
b11111111 T
b11111111 W
b11111111 Z
b11111111 b
b11111111 n
b1010 G
b1010 q
b1010 x
b11111111 2
b11111111 k
b11111111 m
b1010 J
b1010 Q
b1010 a
b1010 o
b1010 #"
0'
1C
b1 0
b1 P
b1 `
b1 :"
b101100 :
b101100 h
b101100 r
0"
#15450
b1001 N
b1001 Y
b1001 ]
b11111111 L
b11111111 _
b11111111 d
b11111111 M
b11111111 [
b11111111 ^
#15460
b1000 G
b1000 q
b1000 x
b1000 J
b1000 Q
b1000 a
b1000 o
b1000 #"
b1000 O
b1000 V
b1000 \
#15480
1"
#15490
b11100 !
b11100 K
b11100 u
b11100 ;"
b11100 C"
#15500
b100000 E
b100000 w
b100000 F
b100000 t
b100000 v
b100000 ,
b100000 f
b100000 s
b100000 <"
b11 J"
#15510
b0 -
b0 g
b0 ""
b0 !"
b10 l
b0 y
b10 }
b100 {
b1011000000000000010000000010 H
b1011000000000000010000000010 9"
b1011000000000000010000000010 I"
#15520
b11100 E
b11100 w
1=
b111 3"
b111 -"
b11 0"
b1001 G
b1001 q
b1001 x
14"
1<
0&
b10 1
b10 R
b10 T
b10 W
b10 Z
b10 b
b10 n
b1 2
b1 k
b1 m
b11111111 J
b11111111 Q
b11111111 a
b11111111 o
b11111111 #"
1'
1%
0$
1B
0C
b0 0
b0 P
b0 `
b0 :"
b100000 :
b100000 h
b100000 r
0"
#15529
b10 /"
0,"
#15530
b0 3"
b0 -"
b10 0"
b1 /"
b1001 2
b1001 k
b1001 m
b1010 L
b1010 _
b1010 d
b0 N
b0 Y
b0 ]
b10 J
b10 Q
b10 a
b10 o
b10 #"
b10 M
b10 [
b10 ^
0&"
0("
b1001 .
b1001 i
b1001 |
b1001 6"
b1000 /
b1000 S
b1000 U
b1000 X
b1000 c
b1000 z
b1000 $"
#15539
b0 /"
1,"
#15540
1&"
1("
b11110111 I
b11110111 j
b11110111 7"
b1010 O
b1010 V
b1010 \
#15560
b100000 E
b100000 w
0=
0<
1"
#15570
b100000 !
b100000 K
b100000 u
b100000 ;"
b100000 C"
04"
#15580
b100100 E
b100100 w
b100100 F
b100100 t
b100100 v
b100100 ,
b100100 f
b100100 s
b100100 <"
b0 J"
b10 H"
#15590
b0 1
b0 R
b0 T
b0 W
b0 Z
b0 b
b0 n
b0 l
b0 }
b0 {
b0 H
b0 9"
b0 I"
0L"
#15599
0G"
#15600
b0 G
b0 q
b0 x
1&
0'
0%
1$
1?
b1000 L
b1000 _
b1000 d
b0 J
b0 Q
b0 a
b0 o
b0 #"
b0 M
b0 [
b0 ^
b100100 :
b100100 h
b100100 r
0"
